<svg width="24" height="20" viewBox="0 0 24 20" fill="none" xmlns="http://www.w3.org/2000/svg">
<path d="M23.6435 2.93683C22.8085 3.30683 21.9115 3.55683 20.9685 3.66983C21.9415 3.08763 22.6694 2.1713 23.0165 1.09183C22.1023 1.63482 21.1018 2.01703 20.0585 2.22183C19.3569 1.4727 18.4276 0.976159 17.4148 0.809307C16.4021 0.642455 15.3626 0.814624 14.4577 1.29909C13.5529 1.78355 12.8333 2.55319 12.4107 3.48854C11.988 4.42388 11.886 5.47258 12.1205 6.47183C10.2682 6.37883 8.45613 5.89738 6.80192 5.05874C5.14772 4.22009 3.68834 3.04299 2.5185 1.60383C2.1185 2.29383 1.8885 3.09383 1.8885 3.94583C1.88805 4.71283 2.07693 5.46808 2.43838 6.14457C2.79982 6.82105 3.32266 7.39787 3.9605 7.82383C3.22078 7.8003 2.49737 7.60042 1.8505 7.24083V7.30083C1.85043 8.37657 2.22253 9.41921 2.90368 10.2518C3.58483 11.0844 4.53307 11.6558 5.5875 11.8688C4.90128 12.0545 4.18184 12.0819 3.4835 11.9488C3.781 12.8744 4.3605 13.6839 5.14087 14.2638C5.92124 14.8437 6.86342 15.165 7.8355 15.1828C6.18533 16.4782 4.14739 17.1809 2.0495 17.1778C1.67788 17.1779 1.30658 17.1562 0.9375 17.1128C3.06698 18.482 5.54584 19.2087 8.0775 19.2058C16.6475 19.2058 21.3325 12.1078 21.3325 5.95183C21.3325 5.75183 21.3275 5.54983 21.3185 5.34983C22.2298 4.69081 23.0164 3.87473 23.6415 2.93983L23.6435 2.93683Z" fill="white"/>
</svg>
